<svg width="526" height="430" viewBox="0 0 526 430" fill="none" xmlns="http://www.w3.org/2000/svg">
<path d="M0 0V22.402V411.054" transform="translate(12.8887 12.188)" stroke="black" stroke-width="3"/>
<path d="M1.52214 20.5932L10.5044 3.34076C11.2448 1.91867 13.2737 1.90219 14.0371 3.31207L23.3787 20.5645C24.1003 21.8971 23.1354 23.5168 21.62 23.5168H3.29611C1.795 23.5168 0.828931 21.9246 1.52214 20.5932Z" transform="translate(0.155029 0.429688)" fill="black" stroke="black"/>
<path d="M1.52214 20.5932L10.5044 3.34076C11.2448 1.91867 13.2737 1.90219 14.0371 3.31207L23.3787 20.5645C24.1003 21.8971 23.1354 23.5168 21.62 23.5168H3.29611C1.795 23.5168 0.828931 21.9246 1.52214 20.5932Z" transform="translate(25.1323 429.611) rotate(180)" fill="black" stroke="black"/>
<path d="M0 0V22.3937V410.901" transform="translate(513.414 416.873) rotate(90)" stroke="black" stroke-width="3"/>
<path d="M1.52356 20.5839L10.5093 3.33774C11.2498 1.91638 13.2778 1.8999 14.0414 3.30904L23.3865 20.5552C24.1086 21.8878 23.1438 23.508 21.6281 23.508H3.29724C1.79587 23.508 0.829817 21.9154 1.52356 20.5839Z" transform="translate(525.168 404.134) rotate(90)" fill="black" stroke="black"/>
<path d="M1.52356 20.5839L10.5093 3.33774C11.2498 1.91638 13.2778 1.8999 14.0414 3.30904L23.3865 20.5552C24.1086 21.8878 23.1438 23.508 21.6281 23.508H3.29724C1.79587 23.508 0.829817 21.9154 1.52356 20.5839Z" transform="translate(96.1462 429.121) rotate(-90)" fill="black" stroke="black"/>
</svg>