<svg width="1057" height="1280" viewBox="0 0 1057 1280" fill="none" xmlns="http://www.w3.org/2000/svg">
<rect x="1" y="1" width="1055" height="24.0773" fill="#EDEDED" stroke="#DBDBDB" stroke-width="2"/>
<rect x="1" y="1" width="1055" height="90.1398" transform="translate(0 1187.39)" fill="#EDEDED" stroke="#DBDBDB" stroke-width="2"/>
<rect x="1" y="1" width="91.8783" height="1164.52" transform="translate(0 22.6003)" fill="#EDEDED" stroke="#DBDBDB" stroke-width="2"/>
<rect x="1" y="1" width="91.8783" height="1164.52" transform="translate(963.122 22.6003)" fill="#EDEDED" stroke="#DBDBDB" stroke-width="2"/>
<rect x="1" y="1" width="91.8783" height="1164.52" transform="translate(528.5 22.6003)" fill="#EDEDED" stroke="#DBDBDB" stroke-width="2"/>
<rect x="1" y="1" width="91.8783" height="1164.52" transform="translate(434.622 22.6003)" fill="#EDEDED" stroke="#DBDBDB" stroke-width="2"/>
<rect x="1.5" y="1.5" width="344.697" height="90.8783" transform="translate(90.4014 22.6003)" fill="#EDEDED" stroke="#DBDBDB" stroke-width="3"/>
<rect x="1.5" y="1.5" width="344.697" height="83.9243" transform="translate(90.4014 1103.94)" fill="#EDEDED" stroke="#DBDBDB" stroke-width="3"/>
<rect x="1" y="1" width="1011.54" height="90.1398" transform="translate(20.8618 1187.39)" fill="#DEDEDE" stroke="#DBDBDB" stroke-width="2"/>
<rect x="1.5" y="1.5" width="344.697" height="83.9243" transform="translate(618.901 1103.94)" fill="#EDEDED" stroke="#DBDBDB" stroke-width="3"/>
<rect x="1.5" y="1.5" width="344.697" height="90.8783" transform="translate(90.4014 559.793)" fill="#EDEDED" stroke="#DBDBDB" stroke-width="3"/>
<rect x="1.5" y="1.5" width="31.7697" height="205.618" transform="translate(469.392 507.638)" fill="#DCDCDC" stroke="#DBDBDB" stroke-width="3"/>
<rect x="1.5" y="1.5" width="31.7697" height="205.618" transform="translate(551.101 507.638)" fill="#DCDCDC" stroke="#DBDBDB" stroke-width="3"/>
<rect x="1.5" y="1.5" width="344.697" height="90.8783" transform="translate(618.901 559.793)" fill="#EDEDED" stroke="#DBDBDB" stroke-width="3"/>
<rect x="1.5" y="1.5" width="344.697" height="90.8783" transform="translate(618.901 22.6003)" fill="#EDEDED" stroke="#DBDBDB" stroke-width="3"/>
</svg>