<svg width="41" height="127" viewBox="0 0 41 127" fill="none" xmlns="http://www.w3.org/2000/svg">
<path d="M0 0L28.2001 62.4998L0 125" transform="translate(2 1)" stroke="#3F424F" stroke-width="3"/>
<path d="M0 0L28.2001 62.4998L0 125" transform="translate(10.7998 1)" stroke="#3F424F" stroke-width="3"/>
</svg>